…
sum_sy
```

    ## # A tibble: 36 × 9
    ##    Site    Year     n Richness_mean Richness_se Abundance_mean Abundance_se
    ##    <chr>  <dbl> <int>         <dbl>       <dbl>          <dbl>        <dbl>
    ##  1 DC1000  2023   104         1.31        0.125           2.47        0.465
    ##  2 GC852   2016    68         1.56        0.140           2.40        0.305
    ##  3 GC852   2017    68         1.29        0.124           1.93        0.277
    ##  4 GC852   2022    68         0.647       0.104           1.01        0.195
    ##  5 MC036   2011    38         0.711       0.210           1.05        0.366
    ##  6 MC036   2014    38         1.95        0.238           3.74        0.630
    ##  7 MC036   2023    38         1.11        0.180           1.95        0.397
    ##  8 MC294   2011    62         0.726       0.142           1.02        0.225
    ##  9 MC294   2012    62         1.05        0.155           1.31        0.205
    ## 10 MC294   2013    62         1.13        0.127           1.74        0.309
    ## # ℹ 26 more rows
    ## # ℹ 2 more variables: Shannon_mean <dbl>, Shannon_se <dbl>
…
